{
    "swagger": "2.0",
    "info": {
        "title": "Home Pesantren Documentation",
        "description": "Dokumentasi API Home Pesantren",
        "termsOfService": "http://devetek.com/terms/",
        "contact": {
            "email": "support@devetek.com"
        },
        "license": {
            "name": "Apache 2.0",
            "url": "http://www.apache.org/licenses/LICENSE-2.0.html"
        },
        "version": "1.0.0"
    },
    "host": "apidev.hompes.id",
    "basePath": "/v1",
    "schemes": [
        "http"
    ],
    "paths": {
        "/user/cek": {
            "get": {
                "tags": [
                    "user"
                ],
                "summary": "Cek user",
                "description": "Validate user session",
                "operationId": "userAuthentication",
                "produces": [
                    "application/json"
                ],
                "parameters": [
                    {
                        "name": "page",
                        "in": "query",
                        "description": "Posisi page",
                        "required": false,
                        "type": "integer"
                    },
                    {
                        "name": "limit",
                        "in": "query",
                        "description": "Maksimal data ditampilkan",
                        "required": false,
                        "type": "integer"
                    }
                ],
                "responses": {
                    "200": {
                        "description": "successful operation",
                        "schema": {
                            "type": "array",
                            "items": {
                                "properties": {
                                    "data": {
                                        "type": "object",
                                        "items": {
                                            "properties": {
                                                "name": {
                                                    "type": "string"
                                                },
                                                "address": {
                                                    "type": "string"
                                                },
                                                "genre": {
                                                    "type": "string"
                                                }
                                            },
                                            "type": "object"
                                        }
                                    },
                                    "hasNext": {
                                        "type": "string"
                                    },
                                    "status": {
                                        "type": "boolean"
                                    }
                                },
                                "type": "object"
                            }
                        }
                    },
                    "400": {
                        "description": "Invalid tag value",
                        "schema": {
                            "properties": {
                                "name": {
                                    "type": "string"
                                }
                            },
                            "type": "string"
                        }
                    }
                },
                "deprecated": true,
                "security": [
                    {
                        "petstore_auth": [
                            "write:pets",
                            "read:pets"
                        ]
                    }
                ]
            }
        },
        "/user": {
            "get": {
                "tags": [
                    "user"
                ],
                "summary": "Get all user",
                "description": "Dapatkan semua data user",
                "operationId": "userAll",
                "produces": [
                    "application/json"
                ],
                "parameters": [
                    {
                        "name": "page",
                        "in": "query",
                        "description": "Posisi page",
                        "required": false,
                        "type": "integer"
                    },
                    {
                        "name": "limit",
                        "in": "query",
                        "description": "Maksimal data ditampilkan",
                        "required": false,
                        "type": "integer"
                    }
                ],
                "responses": {
                    "200": {
                        "description": "successful operation",
                        "schema": {
                            "type": "array",
                            "items": {
                                "properties": {
                                    "data": {
                                        "type": "object",
                                        "items": {
                                            "properties": {
                                                "name": {
                                                    "type": "string"
                                                },
                                                "address": {
                                                    "type": "string"
                                                },
                                                "genre": {
                                                    "type": "string"
                                                }
                                            },
                                            "type": "object"
                                        }
                                    },
                                    "hasNext": {
                                        "type": "string"
                                    },
                                    "status": {
                                        "type": "boolean"
                                    }
                                },
                                "type": "object"
                            }
                        }
                    },
                    "400": {
                        "description": "Invalid tag value",
                        "schema": {
                            "properties": {
                                "name": {
                                    "type": "string"
                                }
                            },
                            "type": "string"
                        }
                    }
                },
                "deprecated": true,
                "security": [
                    {
                        "petstore_auth": [
                            "write:pets",
                            "read:pets"
                        ]
                    }
                ]
            }
        }
    },
    "definitions": {},
    "externalDocs": {
        "description": "Cari tahu lebih banyak tentang Devetek",
        "url": "http://devetek.com"
    }
}